…
  save(clean_data, file = clean_file, compress = "xz")

  clean_data
} else {
  load(clean_file)

  clean_data
}
```

```
## # A tibble: 468 x 7
##     year aggregate_level trade_flow reporter_iso partner_iso product_code
##    <int>           <int> <chr>      <chr>        <chr>       <chr>       
##  1  1962               4 Export     chl          per         2218        
##  2  1962               4 Import     chl          arg         5417        
##  3  1962               4 Export     chl          per         6822        
##  4  1962               4 Import     chl          arg         7141        
##  5  1962               4 Import     chl          bra         7141        
##  6  1962               4 Import     chl          arg         7173        
##  7  1962               4 Import     chl          arg         0452        
##  8  1962               4 Import     chl          arg         0811        
##  9  1962               4 Import     chl          arg         2119        
## 10  1962               4 Import     chl          per         2119        
## # … with 458 more rows, and 1 more variable: trade_value_usd <dbl>
```
…
exports_conciliated
```

```
## # A tibble: 468 x 6
##    reporter_iso partner_iso product_code product_code_pa… parent_count
##    <chr>        <chr>       <chr>        <chr>                   <int>
##  1 chl          per         2218         2218                        1
##  2 chl          per         6822         6822                        1
##  3 chl          arg         2762         2762                        1
##  4 chl          arg         2813         2813                        1
##  5 chl          arg         6821         6821                        1
##  6 chl          bra         6821         6821                        1
##  7 chl          per         8960         8960                        1
##  8 chl          arg         9310         9310                        1
##  9 chl          bra         9310         9310                        1
## 10 chl          per         9310         9310                        1
## # … with 458 more rows, and 1 more variable: trade_value_usd <dbl>
```
…
