…
```r
library(dplyr)
library(stringr)
```

### Available tables


```r
as_tibble(fromJSON("https://api.tradestatistics.io/tables"))
```

```
## # A tibble: 21 x 3
##    table      description                        source                         
##    <chr>      <chr>                              <chr>                          
##  1 countries  Countries metadata                 UN Comtrade (with modification…
##  2 products   Product metadata                   UN Comtrade (with modification…
##  3 reporters  Reporting countries                UN Comtrade (with modification…
##  4 communiti… Product communities                Center for International Devel…
##  5 product_s… Product short names                The Observatory of Economic Co…
##  6 country_r… Ranking of countries               Open Trade Statistics          
##  7 product_r… Ranking of products                Open Trade Statistics          
##  8 yrpc       Reporter-Partner trade at product… Open Trade Statistics          
##  9 yrpc-ga    Reporter-Partner trade at group l… Open Trade Statistics          
## 10 yrpc-ca    Reporter-Partner trade at communi… Open Trade Statistics          
## # … with 11 more rows
```
…
  save(countries, file = rda_countries, compress = "xz")

  countries
} else {
  load(rda_countries)

  countries
}
```

```
## # A tibble: 249 x 6
##    country_iso country_name_en… country_fullnam… continent_id continent
##    <chr>       <chr>            <chr>                   <int> <chr>    
##  1 afg         Afghanistan      Afghanistan                 1 Asia     
##  2 alb         Albania          Albania                     2 Europe   
##  3 dza         Algeria          Algeria                     3 Africa   
##  4 asm         American Samoa   American Samoa              4 Oceania  
##  5 and         Andorra          Andorra                     2 Europe   
##  6 ago         Angola           Angola                      3 Africa   
##  7 aia         Anguilla         Anguilla                    5 Americas 
##  8 atg         Antigua and Bar… Antigua and Bar…            5 Americas 
##  9 arg         Argentina        Argentina                   5 Americas 
## 10 arm         Armenia          Armenia                     1 Asia     
## # … with 239 more rows, and 1 more variable: eu28_member <int>
```
…
  save(products, file = rda_products, compress = "xz")

  products
} else {
  load(rda_products)

  products
}
```

```
## # A tibble: 1,320 x 4
##    product_code product_fullname_english              group_code group_name     
##    <chr>        <chr>                                 <chr>      <chr>          
##  1 0101         Horses, asses, mules and hinnies; li… 01         Animals; live  
##  2 0102         Bovine animals; live                  01         Animals; live  
##  3 0103         Swine; live                           01         Animals; live  
##  4 0104         Sheep and goats; live                 01         Animals; live  
##  5 0105         Poultry; live, fowls of the species … 01         Animals; live  
##  6 0106         Animals, n.e.c. in chapter 01; live   01         Animals; live  
##  7 0201         Meat of bovine animals; fresh or chi… 02         Meat and edibl…
##  8 0202         Meat of bovine animals; frozen        02         Meat and edibl…
##  9 0203         Meat of swine; fresh, chilled or fro… 02         Meat and edibl…
## 10 0204         Meat of sheep or goats; fresh, chill… 02         Meat and edibl…
## # … with 1,310 more rows
```
…
### Available reporters

The only applicable filter is by year.


```r
# Available reporters (filter by year)
as_tibble(fromJSON(
  "https://api.tradestatistics.io/reporters?y=2018"
))
```

```
## # A tibble: 226 x 1
##    reporter_iso
##    <chr>       
##  1 zwe         
##  2 zmb         
##  3 zaf         
##  4 yem         
##  5 wsm         
##  6 wlf         
##  7 vut         
##  8 vnm         
##  9 vgb         
## 10 ven         
## # … with 216 more rows
```
…
The only applicable filter is by year, reporter, product code and (optionally) product code length.


```r
# Year - Reporter - Product Code

yrc <- as_tibble(fromJSON(
  "https://api.tradestatistics.io/yrc?y=1962&r=chl"
))

yrc
```

```
## # A tibble: 912 x 7
##     year reporter_iso product_code export_value_usd import_value_usd export_rca
##    <int> <chr>        <chr>                   <int>            <int>      <dbl>
##  1  1962 chl          0101                   289076            50833     0.534 
##  2  1962 chl          0102                    17685         22167651     0.0072
##  3  1962 chl          0103                        0            32399    NA     
##  4  1962 chl          0104                    12870           199519     0.062 
##  5  1962 chl          0105                        0           132064    NA     
##  6  1962 chl          0106                    20259            10548     0.210 
##  7  1962 chl          0201                    13075          3520194     0.0033
##  8  1962 chl          0203                        0           275764    NA     
##  9  1962 chl          0204                   387625            78528     0.349 
## 10  1962 chl          0206                    38106                0     0.0755
## # … with 902 more rows, and 1 more variable: import_rca <dbl>
```
…
