…
  save(raw_data, file = raw_file, compress = "xz")
  
  raw_data
} else {
  load(raw_file)
  
  raw_data
}
```

```
## # A tibble: 1,288 x 7
##     year aggregate_level trade_flow reporter_iso partner_iso commodity_code
##    <int>           <int> <chr>      <chr>        <chr>       <chr>         
##  1  1962               3 Import     CHL          BRA         071           
##  2  1962               3 Import     CHL          PER         071           
##  3  1962               4 Export     CHL          PER         2218          
##  4  1962               3 Export     CHL          ARG         265           
##  5  1962               3 Import     CHL          BRA         265           
##  6  1962               3 Import     CHL          PER         265           
##  7  1962               5 Export     CHL          BRA         29193         
##  8  1962               1 Export     CHL          ARG         3             
##  9  1962               1 Import     CHL          BRA         3             
## 10  1962               1 Import     CHL          PER         3             
## # … with 1,278 more rows, and 1 more variable: trade_value_us <dbl>
```
…
  save(clean_data, file = clean_file, compress = "xz")
  
  clean_data
} else {
  load(clean_file)
  
  clean_data
}
```

```
## # A tibble: 468 x 7
##     year aggregate_level trade_flow reporter_iso partner_iso product_code
##    <int>           <int> <chr>      <chr>        <chr>       <chr>       
##  1  1962               4 Export     chl          per         2218        
##  2  1962               4 Import     chl          arg         5417        
##  3  1962               4 Export     chl          per         6822        
##  4  1962               4 Import     chl          arg         7141        
##  5  1962               4 Import     chl          bra         7141        
##  6  1962               4 Import     chl          arg         7173        
##  7  1962               4 Import     chl          arg         0452        
##  8  1962               4 Import     chl          arg         0811        
##  9  1962               4 Import     chl          arg         2119        
## 10  1962               4 Import     chl          per         2119        
## # … with 458 more rows, and 1 more variable: trade_value_usd <dbl>
```
…
# Reporter and Partner must be inverted
colnames(exports_mirrored) <- c("partner_iso", "reporter_iso", "product_code", "trade_value_usd")

exports_conciliated <- exports %>%
      full_join(exports_mirrored, by = c("reporter_iso", "partner_iso", "product_code")) %>%
      rowwise() %>%
      mutate(trade_value_usd = max(trade_value_usd.x, trade_value_usd.y, na.rm = T)) %>%
      ungroup() %>%
      select(reporter_iso, partner_iso, product_code, trade_value_usd)

exports_conciliated
```

```
## # A tibble: 468 x 4
##    reporter_iso partner_iso product_code trade_value_usd
##    <chr>        <chr>       <chr>                  <dbl>
##  1 chl          per         2218                    1575
##  2 chl          per         6822                  154203
##  3 chl          arg         2762                    5575
##  4 chl          arg         2813                 1955476
##  5 chl          arg         6821                 2614875
##  6 chl          bra         6821                14049626
##  7 chl          per         8960                     675
##  8 chl          arg         9310                   74875
##  9 chl          bra         9310                   35175
## 10 chl          per         9310                   27276
## # … with 458 more rows
```
…
