…
  save(countries, file = rda_countries, compress = "xz")
  
  countries
} else {
  load(rda_countries)
  
  countries
}
```

```
## # A tibble: 249 x 6
##    country_iso country_name_en… country_fullnam… continent_id continent
##    <chr>       <chr>            <chr>                   <int> <chr>    
##  1 afg         Afghanistan      Afghanistan                 1 Asia     
##  2 alb         Albania          Albania                     2 Europe   
##  3 dza         Algeria          Algeria                     3 Africa   
##  4 asm         American Samoa   American Samoa              4 Oceania  
##  5 and         Andorra          Andorra                     2 Europe   
##  6 ago         Angola           Angola                      3 Africa   
##  7 aia         Anguilla         Anguilla                    5 Americas 
##  8 atg         Antigua and Bar… Antigua and Bar…            5 Americas 
##  9 arg         Argentina        Argentina                   5 Americas 
## 10 arm         Armenia          Armenia                     1 Asia     
## # … with 239 more rows, and 1 more variable: eu28_member <int>
```
…
  save(products, file = rda_products, compress = "xz")
  
  products
} else {
  load(rda_products)
  
  products
}
```

```
## # A tibble: 1,320 x 4
##    product_code product_fullname_english              group_code group_name     
##    <chr>        <chr>                                 <chr>      <chr>          
##  1 0101         Horses, asses, mules and hinnies; li… 01         Animals; live  
##  2 0102         Bovine animals; live                  01         Animals; live  
##  3 0103         Swine; live                           01         Animals; live  
##  4 0104         Sheep and goats; live                 01         Animals; live  
##  5 0105         Poultry; live, fowls of the species … 01         Animals; live  
##  6 0106         Animals, n.e.c. in chapter 01; live   01         Animals; live  
##  7 0201         Meat of bovine animals; fresh or chi… 02         Meat and edibl…
##  8 0202         Meat of bovine animals; frozen        02         Meat and edibl…
##  9 0203         Meat of swine; fresh, chilled or fro… 02         Meat and edibl…
## 10 0204         Meat of sheep or goats; fresh, chill… 02         Meat and edibl…
## # … with 1,310 more rows
```
…
### Available reporters

The only applicable filter is by year.


```r
# Available reporters (filter by year)
as_tibble(fromJSON(
  "https://api.tradestatistics.io/reporters?y=2015"
))
```

```
## # A tibble: 225 x 1
##    reporter_iso
##    <chr>       
##  1 zwe         
##  2 zmb         
##  3 zaf         
##  4 yem         
##  5 wsm         
##  6 wlf         
##  7 vut         
##  8 vnm         
##  9 vgb         
## 10 ven         
## # … with 215 more rows
```
…
  save(yrpc_1, file = rda_1962, compress = "xz")
  
  yrpc_1
} else {
  load(rda_1962)
  
  yrpc_1
}
```

```
## # A tibble: 35,346 x 6
##     year reporter_iso partner_iso product_code import_value_usd export_value_usd
##    <int> <chr>        <chr>       <chr>                   <int>            <int>
##  1  1962 usa          zaf         7502                     2758               NA
##  2  1962 usa          zaf         7213                    76363               NA
##  3  1962 usa          zaf         7206                   143415               NA
##  4  1962 usa          zaf         7201                   189295               NA
##  5  1962 usa          zaf         7118                     6687               NA
##  6  1962 usa          zaf         7102                 22770831               NA
##  7  1962 usa          zaf         5105                   268857               NA
##  8  1962 usa          zaf         5102                    48423               NA
##  9  1962 usa          zaf         5101                 26275600               NA
## 10  1962 usa          zaf         4702                  2224566               NA
## # … with 35,336 more rows
```
…
```r
# Year - Reporter - Product Code (filter by year and reporter)

## filter by reporter ISO (parameter `r`)
yrc_1 <- as_tibble(fromJSON(
  "https://api.tradestatistics.io/yrc?y=2015&r=chl"
))

yrc_1
```

```
## # A tibble: 1,214 x 7
##     year reporter_iso product_code export_value_usd import_value_usd export_rca
##    <int> <chr>        <chr>                   <dbl>            <dbl>      <dbl>
##  1  2015 chl          9999                418275298       3762480583     0.218 
##  2  2015 chl          9706                  1707137           672446     0.0559
##  3  2015 chl          9705                   842192          1406771     0.07  
##  4  2015 chl          9704                     1000            14911     0.0444
##  5  2015 chl          9703                   494608          3739440     0.0226
##  6  2015 chl          9702                    33049           517013     0.0175
##  7  2015 chl          9701                  1055091          9190143     0.0599
##  8  2015 chl          9618                   376809          5512649     0.141 
##  9  2015 chl          9617                  2244928         15290042     0.378 
## 10  2015 chl          9616                    32828          4020991     0.0055
## # … with 1,204 more rows, and 1 more variable: import_rca <dbl>
```

```r
## filter by reporter alias (also parameter `r`)
yrc_2 <- as_tibble(fromJSON(
  "https://api.tradestatistics.io/yrc?y=2015&r=c-am"
))

yrc_2
```

```
## # A tibble: 47,673 x 7
##     year reporter_iso product_code export_value_usd import_value_usd export_rca
##    <int> <chr>        <chr>                   <dbl>            <dbl>      <dbl>
##  1  2015 vgb          8213                       15             2279    1.77e-2
##  2  2015 vgb          9032                    17265           104027    1.80e-2
##  3  2015 vgb          9031                    18991           466671    1.13e-2
##  4  2015 vgb          9030                    28455           180127    2.39e-2
##  5  2015 vgb          9029                    15976             1381    4.36e-2
##  6  2015 vgb          9028                        0           116064   NA      
##  7  2015 vgb          9027                     4870           698770    1.75e-1
##  8  2015 vgb          9026                    41202           548144    9.77e-2
##  9  2015 vgb          9025                    11017            84800    1.10e-1
## 10  2015 vgb          9024                        1             3889    9.52e-6
## # … with 47,663 more rows, and 1 more variable: import_rca <dbl>
```
…
