…
if (!file.exists(rda_file)) {
  raw_data <- fread2(
    "../yearly-datasets/01-raw-data/hs-rev2007/gz/type-C_r-ALL_ps-2016_freq-A_px-H3_pub-20180612_fmt-csv_ex-20180705.csv.gz",
    select = c("Year", "Aggregate Level", "Trade Flow", "Reporter ISO", "Partner ISO", "Commodity Code", "Trade Value (US$)"),
    character = "Commodity Code",
    numeric = "Trade Value (US$)"
  )
  
  raw_data
}
```

```
## # A tibble: 25,790,743 x 7
##     year aggregate_level trade_flow reporter_iso partner_iso commodity_code
##    <int>           <int> <chr>      <chr>        <chr>       <chr>         
##  1  2016               2 Import     ALB          WLD         01            
##  2  2016               2 Export     ALB          WLD         01            
##  3  2016               2 Import     ALB          AUT         01            
##  4  2016               2 Import     ALB          BGR         01            
##  5  2016               2 Import     ALB          GRC         01            
##  6  2016               2 Import     ALB          HUN         01            
##  7  2016               2 Import     ALB          ITA         01            
##  8  2016               2 Export     ALB          ITA         01            
##  9  2016               2 Import     ALB          ROU         01            
## 10  2016               2 Export     ALB          SRB         01            
## # … with 25,790,733 more rows, and 1 more variable: trade_value_us <dbl>
```
…
  save(clean_data, file = rda_file, compress = "xz")
  
  clean_data
} else {
  load(rda_file)
  
  clean_data
}
```

```
## # A tibble: 22,517 x 7
##     year aggregate_level trade_flow reporter_iso partner_iso commodity_code
##    <int>           <int> <chr>      <chr>        <chr>       <chr>         
##  1  2016               4 Import     chl          arg         0101          
##  2  2016               4 Export     chl          arg         0101          
##  3  2016               4 Import     chl          bra         0101          
##  4  2016               4 Export     chl          per         0101          
##  5  2016               4 Import     chl          usa         0101          
##  6  2016               4 Export     chl          usa         0101          
##  7  2016               6 Import     chl          arg         010110        
##  8  2016               6 Export     chl          arg         010110        
##  9  2016               6 Import     chl          bra         010110        
## 10  2016               6 Export     chl          per         010110        
## # … with 22,507 more rows, and 1 more variable: trade_value_usd <dbl>
```
…
exports_model
```

```
## # A tibble: 22,484 x 6
##     year reporter_iso partner_iso commodity_code commodity_code_…
##    <dbl> <chr>        <chr>       <chr>                     <int>
##  1  2016 arg          chl         0101                          4
##  2  2016 arg          chl         010110                        6
##  3  2016 arg          chl         010190                        6
##  4  2016 arg          chl         0106                          4
##  5  2016 arg          chl         010619                        6
##  6  2016 arg          chl         0201                          4
##  7  2016 arg          chl         020130                        6
##  8  2016 arg          chl         0202                          4
##  9  2016 arg          chl         020230                        6
## 10  2016 arg          chl         0206                          4
## # … with 22,474 more rows, and 1 more variable: trade_value_usd <dbl>
```
…
