…
data_1962
```

```
## # A tibble: 1,709,034 x 15
##     year reporter_iso partner_iso commodity_code commodity_code_…
##    <int> <chr>        <chr>       <chr>                     <int>
##  1  1962 afg          aus         5702                          4
##  2  1962 afg          aus         570210                        6
##  3  1962 afg          aut         0501                          4
##  4  1962 afg          aut         0504                          4
##  5  1962 afg          aut         050400                        6
##  6  1962 afg          aut         5702                          4
##  7  1962 afg          aut         570210                        6
##  8  1962 afg          bel         0501                          4
##  9  1962 afg          bel         0504                          4
## 10  1962 afg          bel         050400                        6
## # … with 1,709,024 more rows, and 10 more variables:
## #   export_value_usd <dbl>, import_value_usd <dbl>,
## #   export_value_usd_change_1_year <dbl>,
## #   export_value_usd_change_5_years <dbl>,
## #   export_value_usd_percentage_change_1_year <dbl>,
## #   export_value_usd_percentage_change_5_years <dbl>,
## #   import_value_usd_change_1_year <dbl>,
## #   import_value_usd_change_5_years <dbl>,
## #   import_value_usd_percentage_change_1_year <dbl>,
…
By using the API you can obtain the same result as in section \@ref(compressed-data), but in a simpler way: 


```r
library(jsonlite)

data_1962 <- as_tibble(fromJSON(
  "https://api.tradestatistics.io/yrpc?y=1962&r=all&p=all&l=4"
))

data_1962
```

```
## # A tibble: 911,002 x 7
##     year reporter_iso partner_iso commodity_code commodity_code_…
##    <int> <chr>        <chr>       <chr>                     <int>
##  1  1962 afg          aus         3215                          4
##  2  1962 afg          aus         4802                          4
##  3  1962 afg          aus         5702                          4
##  4  1962 afg          aus         6401                          4
##  5  1962 afg          aus         7010                          4
##  6  1962 afg          aus         7016                          4
##  7  1962 afg          aus         8301                          4
##  8  1962 afg          aus         9999                          4
##  9  1962 afg          aut         0501                          4
## 10  1962 afg          aut         0504                          4
## # … with 910,992 more rows, and 2 more variables: import_value_usd <int>,
## #   export_value_usd <int>
```
…
## Products (no filter)
products <- as_tibble(fromJSON(
  "https://api.tradestatistics.io/products"
))
```


```r
countries
```

```
## # A tibble: 249 x 6
##    country_iso country_name_en… country_fullnam… continent_id continent
##    <chr>       <chr>            <chr>                   <int> <chr>    
##  1 afg         Afghanistan      Afghanistan                 1 Asia     
##  2 alb         Albania          Albania                     2 Europe   
##  3 dza         Algeria          Algeria                     3 Africa   
##  4 asm         American Samoa   American Samoa              4 Oceania  
##  5 and         Andorra          Andorra                     2 Europe   
##  6 ago         Angola           Angola                      3 Africa   
##  7 aia         Anguilla         Anguilla                    5 Americas 
##  8 atg         Antigua and Bar… Antigua and Bar…            5 Americas 
##  9 arg         Argentina        Argentina                   5 Americas 
## 10 arm         Armenia          Armenia                     1 Asia     
## # … with 239 more rows, and 1 more variable: eu28_member <int>
```


```r
products
```

```
## # A tibble: 6,373 x 4
##    commodity_code product_fullname_english            group_code group_name
##    <chr>          <chr>                               <chr>      <chr>     
##  1 0101           Horses, asses, mules and hinnies; … 01         Animals; …
##  2 010110         Horses, asses, mules and hinnies; … 01         Animals; …
##  3 010190         Horses, asses, mules and hinnies; … 01         Animals; …
##  4 0102           Bovine animals; live                01         Animals; …
##  5 010210         Bovine animals; live, pure-bred br… 01         Animals; …
##  6 010290         Bovine animals; live, other than p… 01         Animals; …
##  7 0103           Swine; live                         01         Animals; …
##  8 010310         Swine; live, pure-bred breeding an… 01         Animals; …
##  9 010391         Swine; live, (other than pure-bred… 01         Animals; …
## 10 010392         Swine; live, (other than pure-bred… 01         Animals; …
## # … with 6,363 more rows
```
…
```r
# Year - Reporter - Partner - Commodity (filter by year, reporter and partner)

## filter by commodity length (parameter `l`)
yrpc_1 <- as_tibble(fromJSON(
  "https://api.tradestatistics.io/yrpc?y=2015&r=chl&p=arg&l=4"
))

yrpc_1
```

```
## # A tibble: 950 x 15
##     year reporter_iso partner_iso commodity_code commodity_code_…
##    <int> <chr>        <chr>       <chr>                     <int>
##  1  2015 chl          arg         0101                          4
##  2  2015 chl          arg         0106                          4
##  3  2015 chl          arg         0201                          4
##  4  2015 chl          arg         0202                          4
##  5  2015 chl          arg         0206                          4
##  6  2015 chl          arg         0207                          4
##  7  2015 chl          arg         0301                          4
##  8  2015 chl          arg         0302                          4
##  9  2015 chl          arg         0303                          4
## 10  2015 chl          arg         0304                          4
## # … with 940 more rows, and 10 more variables: export_value_usd <int>,
## #   import_value_usd <int>, export_value_usd_change_1_year <int>,
## #   export_value_usd_change_5_years <int>,
## #   export_value_usd_percentage_change_1_year <dbl>,
## #   export_value_usd_percentage_change_5_years <dbl>,
## #   import_value_usd_change_1_year <int>,
## #   import_value_usd_change_5_years <int>,
## #   import_value_usd_percentage_change_1_year <dbl>,
## #   import_value_usd_percentage_change_5_years <dbl>
```
…
```r
# Year - Reporter - Commodity (filter by year and reporter)

## filter by reporter ISO (parameter `r`)
yrc_1 <- as_tibble(fromJSON(
  "https://api.tradestatistics.io/yrc?y=2015&r=chl&l=4"
))

yrc_1
```

```
## # A tibble: 1,214 x 16
##     year reporter_iso commodity_code commodity_code_… export_value_usd
##    <int> <chr>        <chr>                     <int>            <dbl>
##  1  2015 chl          0101                          4          9958013
##  2  2015 chl          0102                          4         88938806
##  3  2015 chl          0103                          4           956016
##  4  2015 chl          0104                          4               NA
##  5  2015 chl          0105                          4               NA
##  6  2015 chl          0106                          4          5290017
##  7  2015 chl          0201                          4          7812764
##  8  2015 chl          0202                          4         25146882
##  9  2015 chl          0203                          4        402815596
## 10  2015 chl          0204                          4         32743522
## # … with 1,204 more rows, and 11 more variables: import_value_usd <dbl>,
## #   export_rca_4_digits_commodity_code <dbl>,
## #   import_rca_4_digits_commodity_code <dbl>,
## #   export_value_usd_change_1_year <dbl>,
## #   export_value_usd_change_5_years <dbl>,
## #   export_value_usd_percentage_change_1_year <dbl>,
## #   export_value_usd_percentage_change_5_years <dbl>,
## #   import_value_usd_change_1_year <dbl>,
## #   import_value_usd_change_5_years <dbl>,
## #   import_value_usd_percentage_change_1_year <dbl>,
## #   import_value_usd_percentage_change_5_years <dbl>
```

```r
## filter by reporter alias (also parameter `r`)
yrc_2 <- as_tibble(fromJSON(
  "https://api.tradestatistics.io/yrc?y=2015&r=c-am&l=4"
))

yrc_2
```

```
## # A tibble: 47,807 x 16
##     year reporter_iso commodity_code commodity_code_… import_value_usd
##    <int> <chr>        <chr>                     <int>            <dbl>
##  1  2015 aia          0101                          4            12000
##  2  2015 aia          0104                          4             1481
##  3  2015 aia          0105                          4            44859
##  4  2015 aia          0106                          4              111
##  5  2015 aia          0201                          4           216873
##  6  2015 aia          0202                          4           514211
##  7  2015 aia          0203                          4           166264
##  8  2015 aia          0204                          4            57070
##  9  2015 aia          0206                          4            33427
## 10  2015 aia          0207                          4          1117503
## # … with 47,797 more rows, and 11 more variables:
## #   import_rca_4_digits_commodity_code <dbl>,
## #   import_value_usd_change_1_year <dbl>,
## #   import_value_usd_percentage_change_1_year <dbl>,
## #   import_value_usd_change_5_years <dbl>,
## #   import_value_usd_percentage_change_5_years <dbl>,
## #   export_value_usd <dbl>, export_rca_4_digits_commodity_code <dbl>,
## #   export_value_usd_change_1_year <dbl>,
## #   export_value_usd_change_5_years <dbl>,
…
