Section 4 Datasets | Open Trade Statistics
…
data_1962

## # A tibble: 49,383 x 7
##     year reporter_iso partner_iso commodity_code commodity_code_…
##    <int> <chr>        <chr>       <chr>                     <int>
##  1  1962 usa          afg         0201                          4
##  2  1962 usa          afg         0210                          4
##  3  1962 usa          afg         0401                          4
##  4  1962 usa          afg         0402                          4
##  5  1962 usa          afg         0405                          4
##  6  1962 usa          afg         0406                          4
##  7  1962 usa          afg         0409                          4
##  8  1962 usa          afg         0710                          4
##  9  1962 usa          afg         0801                          4
## 10  1962 usa          afg         0802                          4
## # … with 49,373 more rows, and 2 more variables: export_value_usd <int>,
## #   import_value_usd <int>
…
if (!file.exists(rda_countries)) {
  countries <- as_tibble(fromJSON(
    "https://api.tradestatistics.io/countries"
  ))
  
  save(countries, file = rda_countries, compress = "xz")
  
  countries
} else {
  load(rda_countries)
  
  countries
}

## # A tibble: 249 x 6
##    country_iso country_name_en… country_fullnam… continent_id continent
##    <chr>       <chr>            <chr>                   <int> <chr>    
##  1 afg         Afghanistan      Afghanistan                 1 Asia     
##  2 alb         Albania          Albania                     2 Europe   
##  3 dza         Algeria          Algeria                     3 Africa   
##  4 asm         American Samoa   American Samoa              4 Oceania  
##  5 and         Andorra          Andorra                     2 Europe   
##  6 ago         Angola           Angola                      3 Africa   
##  7 aia         Anguilla         Anguilla                    5 Americas 
##  8 atg         Antigua and Bar… Antigua and Bar…            5 Americas 
##  9 arg         Argentina        Argentina                   5 Americas 
## 10 arm         Armenia          Armenia                     1 Asia     
## # … with 239 more rows, and 1 more variable: eu28_member <int>
…
if (!file.exists(rda_products)) {
  products <- as_tibble(fromJSON(
    "https://api.tradestatistics.io/products"
  ))
  
  save(products, file = rda_products, compress = "xz")
  
  products
} else {
  load(rda_products)
  
  products
}

## # A tibble: 6,373 x 4
##    commodity_code commodity_fullname_english          group_code group_name
##    <chr>          <chr>                               <chr>      <chr>     
##  1 0101           Horses, asses, mules and hinnies; … 01         Animals; …
##  2 010110         Horses, asses, mules and hinnies; … 01         Animals; …
##  3 010190         Horses, asses, mules and hinnies; … 01         Animals; …
##  4 0102           Bovine animals; live                01         Animals; …
##  5 010210         Bovine animals; live, pure-bred br… 01         Animals; …
##  6 010290         Bovine animals; live, other than p… 01         Animals; …
##  7 0103           Swine; live                         01         Animals; …
##  8 010310         Swine; live, pure-bred breeding an… 01         Animals; …
##  9 010391         Swine; live, (other than pure-bred… 01         Animals; …
## 10 010392         Swine; live, (other than pure-bred… 01         Animals; …
## # … with 6,363 more rows
…
By default the API takes c = "all" and l = 4 as defaults.

You can always skip c or l, but y, r and p are requiered to return data.

4.3.4 Available reporters

The only applicable filter is by year.

# Available reporters (filter by year)
as_tibble(fromJSON(
  "https://api.tradestatistics.io/reporters?y=2015"
))

## # A tibble: 224 x 1
##    reporter_iso
##    <chr>       
##  1 afg         
##  2 ago         
##  3 aia         
##  4 alb         
##  5 and         
##  6 are         
##  7 arg         
##  8 arm         
##  9 asm         
## 10 atf         
## # … with 214 more rows
…
  yrpc_1
} else {
  load(rda_1962)
  
  yrpc_1 <- data_1962
  
  yrpc_1
}

## # A tibble: 49,383 x 7
##     year reporter_iso partner_iso commodity_code commodity_code_…
##    <int> <chr>        <chr>       <chr>                     <int>
##  1  1962 usa          afg         0201                          4
##  2  1962 usa          afg         0210                          4
##  3  1962 usa          afg         0401                          4
##  4  1962 usa          afg         0402                          4
##  5  1962 usa          afg         0405                          4
##  6  1962 usa          afg         0406                          4
##  7  1962 usa          afg         0409                          4
##  8  1962 usa          afg         0710                          4
##  9  1962 usa          afg         0801                          4
## 10  1962 usa          afg         0802                          4
## # … with 49,373 more rows, and 2 more variables: export_value_usd <int>,
## #   import_value_usd <int>
…
4.3.6 YRC (Year, Reporter and Commodity)

The only applicable filter is by year and reporter.

# Year - Reporter - Commodity (filter by year and reporter)

## filter by reporter ISO (parameter `r`)
yrc_1 <- as_tibble(fromJSON(
  "https://api.tradestatistics.io/yrc?y=2015&r=chl&l=4"
))

yrc_1

## # A tibble: 1,214 x 16
##     year reporter_iso commodity_code commodity_code_… export_value_usd
##    <int> <chr>        <chr>                     <int>            <dbl>
##  1  2015 chl          0101                          4          9958013
##  2  2015 chl          0102                          4         88938806
##  3  2015 chl          0103                          4           956016
##  4  2015 chl          0104                          4               NA
##  5  2015 chl          0105                          4               NA
##  6  2015 chl          0106                          4          5290017
##  7  2015 chl          0201                          4          7812764
##  8  2015 chl          0202                          4         25146882
##  9  2015 chl          0203                          4        402815596
## 10  2015 chl          0204                          4         32743522
## # … with 1,204 more rows, and 11 more variables: import_value_usd <dbl>,
## #   export_rca_4_digits_commodity_code <dbl>,
## #   import_rca_4_digits_commodity_code <dbl>,
## #   export_value_usd_change_1_year <dbl>,
## #   export_value_usd_change_5_years <dbl>,
## #   export_value_usd_percentage_change_1_year <dbl>,
## #   export_value_usd_percentage_change_5_years <dbl>,
## #   import_value_usd_change_1_year <dbl>,
## #   import_value_usd_change_5_years <dbl>,
## #   import_value_usd_percentage_change_1_year <dbl>,
## #   import_value_usd_percentage_change_5_years <dbl>

## filter by reporter alias (also parameter `r`)
yrc_2 <- as_tibble(fromJSON(
  "https://api.tradestatistics.io/yrc?y=2015&r=c-am&l=4"
))

yrc_2

## # A tibble: 47,807 x 16
##     year reporter_iso commodity_code commodity_code_… import_value_usd
##    <int> <chr>        <chr>                     <int>            <dbl>
##  1  2015 aia          0101                          4            12000
##  2  2015 aia          0104                          4             1481
##  3  2015 aia          0105                          4            44859
##  4  2015 aia          0106                          4              111
##  5  2015 aia          0201                          4           216873
##  6  2015 aia          0202                          4           514211
##  7  2015 aia          0203                          4           166264
##  8  2015 aia          0204                          4            57070
##  9  2015 aia          0206                          4            33427
## 10  2015 aia          0207                          4          1117503
## # … with 47,797 more rows, and 11 more variables:
## #   import_rca_4_digits_commodity_code <dbl>,
## #   import_value_usd_change_1_year <dbl>,
## #   import_value_usd_percentage_change_1_year <dbl>,
## #   import_value_usd_change_5_years <dbl>,
## #   import_value_usd_percentage_change_5_years <dbl>,
## #   export_value_usd <dbl>, export_rca_4_digits_commodity_code <dbl>,
## #   export_value_usd_change_1_year <dbl>,
## #   export_value_usd_change_5_years <dbl>,
…
