Section 3 Data Processing | Open Trade Statistics Documentation
…
url_1962 <- "https://tradestatistics.io/data/04-unified-data/hs-rev2007/hs-rev2007-1962.csv.gz"
gz_1962 <- "hs-rev2007-1962.csv.gz"

if (!file.exists(gz_1962)) {
  try(download.file(url_1962, gz_1962))
}

# read data

data_1962 <- fread2(gz_1962, numeric = "trade_value_usd", character = "commodity_code")

data_1962

## # A tibble: 983,643 x 6
##     year reporter_iso partner_iso commodity_code commodity_code_…
##    <int> <chr>        <chr>       <chr>                     <int>
##  1  1962 afg          aus         5702                          4
##  2  1962 afg          aus         570210                        6
##  3  1962 afg          aut         0501                          4
##  4  1962 afg          aut         0504                          4
##  5  1962 afg          aut         050400                        6
##  6  1962 afg          aut         5702                          4
##  7  1962 afg          aut         570210                        6
##  8  1962 afg          bel         0501                          4
##  9  1962 afg          bel         0504                          4
## 10  1962 afg          bel         050400                        6
## # ... with 983,633 more rows, and 1 more variable: trade_value_usd <dbl>
…
